CSVTestFiles/TestESDAOving8_01_10kHz.csv

#Digilent WaveForms Oscilloscope Acquisition
#Device Name: Discovery2
#Serial Number: SN:210321B278C5
#Date Time: 2025-03-28 12:18:18.446
#Sample rate: 10239.6Hz
#Samples: 8192
#Trigger: Source: Channel 1 Type: Edge Condition: Falling Level: 0 V Hyst.: Auto HoldOff: 0 s
#Channel 1: Range: 500 mV/div Offset: 0 V Sample Mode: Average
#Channel 2: Range: 500 mV/div Offset: 0 V Sample Mode: Average
#Wavegen Channel 1: Running
#Mode: Simple
#Type: Square
#Frequency: 1 kHz
#Period: 1 ms
#Amplitude: 500 mV
#Offset: 500 mV
#Symmetry: 1 %
#Phase: 0 °

Time (s),Channel 1 (V),Channel 2 (V)
-0.3981598912500001,-0.003035551450026723,0.0001278283787973025
-0.3980622312500001,-0.003035551450026723,0.0001278283787973025
-0.3979645712500001,-0.003035551450026723,0.0001278283787973025
-0.3978669112500001,-0.003035551450026723,0.0001278283787973025
-0.3977692512500001,-0.003035551450026723,0.0001278283787973025
-0.3976715912500001,0.09677141167303716,0.001153665767317153
-0.3975739312500001,-0.002023994391301645,-0.0008980090097220814
-0.3974762712500001,-0.003035551450026263,-0.0002141174173764474
-0.3973786112500001,-0.003035551450026723,0.000127828378797147
-0.3972809512500001,-0.003035551450026723,0.0001278283787973025
-0.3971832912500001,-0.003035551450026723,0.0001278283787973025
-0.3970856312500001,-0.002698365763800156,0.0001278283787973025
-0.3969879712500001,-0.002698365763800002,0.0001278283787973025
-0.39689031125,-0.002698365763800002,0.0001278283787973025
-0.39679265125,-0.002698365763800002,0.0001278283787973025
-0.39669499125,-0.002698365763754002,0.000127828378797458
-0.39659733125,0.09845734010417029,0.000469774174970586
-0.39649967125,-0.002361180077573282,0.0001278283787973025
-0.39640201125,-0.002361180077573282,0.0001278283787973025
-0.39630435125,-0.002361180077573282,0.000127828378797458
-0.39620669125,-0.002361180077573282,0.0004697741749707415
-0.39610903125,-0.002361180077573282,0.0004697741749707415
-0.39601137125,-0.002361180077573282,0.0004697741749707415
-0.39591371125,-0.002361180077573282,0.0004697741749707415
-0.39581605125,-0.002698365763800002,0.0004697741749707415
-0.39571839125,-0.002698365763800002,0.0004697741749707415
-0.39562073125,0.09845734010421614,0.0004697741749707415
-0.39552307125,-0.002361180077573282,0.0001278283787973025
-0.39542541125,-0.002361180077573282,0.0001278283787973025
-0.39532775125,-0.002361180077573282,0.0004697741749707415
-0.39523009125,-0.002361180077573282,0.0004697741749707415
-0.39513243125,-0.001686808705119841,0.001153665767317619
-0.39503477125,-0.001686808705119841,0.001153665767317619
-0.39493711125,-0.001686808705119841,0.001153665767317619
-0.39483945125,-0.001686808705119841,0.001153665767317619
-0.39474179125,-0.001686808705119841,0.001153665767317619
-0.39464413125,0.0960970403006291,0.001153665767317619
-0.39454647125,-0.002023994391346561,-0.0002141174173761364
-0.39444881125,-0.002698365763800002,0.0001278283787973025
-0.39435115125,-0.002698365763800002,0.0001278283787973025
-0.39425349125,-0.003035551450026723,0.0001278283787973025
-0.39415583125,-0.002698365763800002,0.0001278283787973025
-0.39405817125,-0.002698365763800002,0.0001278283787973025
-0.39396051125,-0.002698365763800002,0.0001278283787973025
-0.39386285125,-0.003035551450026723,0.0001278283787973025
-0.39376519125,-0.002698365763800002,0.0001278283787973025
-0.39366753125,0.09508548324194896,0.0008117199711441804
-0.39356987125,-0.001686808705119841,-0.0005560632135495754
-0.39347221125,-0.002698365763800002,0.0001278283787973025
-0.39337455125,-0.003035551450026723,0.0001278283787973025
-0.39327689125,-0.003035551450026723,0.0001278283787973025
-0.39317923125,-0.002698365763800002,0.0001278283787973025
-0.39308157125,-0.002698365763800002,0.0004697741749707415
-0.39298391125,-0.002698365763800002,0.0004697741749707415
-0.39288625125,-0.002361180077573282,0.0008117199711441804
-0.39278859125,-0.003035551450026723,0.0001278283787973025
-0.39269093125,-0.003035551450026723,0.0004697741749707415
-0.39259327125,0.0957598546144024,0.0004697741749707415
-0.39249561125,-0.002698365763800002,0.0001278283787973025
-0.39239795125,-0.003035551450026723,0.0001278283787973025
-0.39230029125,-0.003035551450026723,0.0001278283787973025
-0.39220263125,-0.003035551450026723,0.0001278283787973025
-0.39210497125,-0.003372737136253443,-0.0002141174173761364
-0.39200731125,-0.003372737136253443,0.0001278283787973025
-0.39190965125,-0.003372737136253443,-0.0002141174173761364
-0.39181199125,-0.003035551450026723,0.0001278283787973025
-0.39171433125,-0.003372737136253443,0.0001278283787973025
-0.39161667125,0.0977829687317627,0.0001278283787973025
-0.39151901125,-0.002698365763800002,-0.0002141174173761364
-0.39142135125,-0.003372737136253443,0.0001278283787973025
-0.39132369125,-0.003035551450026723,0.0001278283787973025
-0.3912260312500001,-0.003035551450026723,0.0001278283787973025
-0.3911283712500001,-0.003372737136253443,0.0001278283787973025
-0.3910307112500001,-0.003372737136253443,0.0001278283787973025
-0.3909330512500001,-0.003372737136253443,0.0001278283787973025
-0.3908353912500001,-0.003372737136253443,0.0001278283787973025
-0.3907377312500001,-0.003372737136253443,0.0001278283787973025
-0.3906400712500001,0.09710859735930927,0.0004697741749707415
-0.3905424112500001,-0.002698365763800002,-0.0005560632135495754
-0.3904447512500001,-0.003372737136253443,-0.0002141174173761364
-0.3903470912500001,-0.003372737136253443,0.0001278283787973025
-0.3902494312500001,-0.003372737136253443,0.0001278283787973025
-0.3901517712500001,-0.003372737136253443,0.0001278283787973025
-0.3900541112500001,-0.003372737136253443,0.0001278283787973025
-0.3899564512500001,-0.003372737136253443,0.0001278283787973025
-0.3898587912500001,-0.003372737136253443,-0.0002141174173761364
-0.3897611312500001,-0.003372737136253443,0.0001278283787973025
-0.3896634712500001,0.0944111118694955,0.0008117199711441804
-0.3895658112500001,-0.002361180077573282,-0.0008980090097230142
-0.3894681512500001,-0.003372737136253443,0.0001278283787973025
-0.3893704912500001,-0.003372737136253443,0.0001278283787973025
-0.3892728312500001,-0.003372737136253443,0.0001278283787973025
-0.3891751712500001,-0.003372737136253443,0.0001278283787973025
-0.3890775112500001,-0.003372737136253443,0.0001278283787973025
-0.3889798512500001,-0.003372737136253443,0.0001278283787973025
-0.3888821912500001,-0.003372737136253443,0.0001278283787973025
-0.3887845312500001,-0.003372737136253443,0.0001278283787973025
-0.3886868712500001,0.03574080246602834,0.000469774174970586
-0.3885892112500001,0.05630912932586674,-0.0002141174173758255
-0.3884915512500001,-0.003372737136226302,-0.0002141174173761364
-0.3883938912500001,-0.003372737136253443,0.000127828378797147
-0.3882962312500001,-0.003372737136253443,0.0001278283787973025
-0.3881985712500001,-0.003372737136253443,0.0001278283787973025
-0.3881009112500001,-0.003372737136253443,-0.0002141174173759809
-0.3880032512500001,-0.003372737136253443,-0.0002141174173761364
-0.3879055912500001,-0.003372737136253443,0.000127828378797147
-0.3878079312500001,-0.003372737136253443,-0.0002141174173759809
-0.38771027125,-0.003709922822435237,0.0001278283787973025
-0.38761261125,0.09508548324190419,0.000127828378797147
-0.38751495125,-0.003372737136253443,-0.0002141174173761364
-0.38741729125,-0.003372737136253443,-0.0002141174173759809
-0.38731963125,-0.003372737136253443,0.0001278283787973025
-0.38722197125,-0.00337273713625329,0.0001278283787973025
-0.38712431125,-0.003035551450026723,0.0001278283787973025
-0.38702665125,-0.003035551450026723,0.0001278283787973025
-0.38692899125,-0.003035551450026569,0.0001278283787973025
-0.38683133125,-0.002698365763800002,0.0001278283787973025
-0.38673367125,-0.002698365763800002,0.0001278283787973025
-0.38663601125,0.09812015441798944,0.0004697741749707415
-0.38653835125,-0.001686808705119841,0.0001278283787973025
-0.38644069125,-0.002023994391346561,0.0004697741749707415
-0.38634303125,-0.002361180077573282,0.0004697741749707415
-0.38624537125,-0.002361180077573282,0.0004697741749707415
-0.38614771125,-0.002361180077573282,0.0004697741749707415
-0.38605005125,-0.002361180077573282,0.0004697741749707415
-0.38595239125,-0.002361180077573282,0.0004697741749707415
-0.38585473125,-0.002023994391346561,0.0004697741749707415
-0.38575707125,-0.002023994391346561,0.0008117199711441804
-0.38565941125,0.09879452579044287,0.001495611563491058
-0.38556175125,-0.0010124373326664,-0.0002141174173761364
-0.38546409125,-0.002023994391346561,0.0004697741749707415
-0.38536643125,-0.002023994391346561,0.0004697741749707415
-0.38526877125,-0.002023994391346561,0.0004697741749707415
-0.38517111125,-0.002023994391346561,0.0004697741749707415
-0.38507345125,-0.002023994391346561,0.0004697741749707415
-0.38497579125,-0.002023994391346561,0.0004697741749707415
-0.38487813125,-0.002023994391346561,0.0004697741749707415
-0.38478047125,-0.002023994391346561,0.0001278283787973025
-0.38468281125,0.07856338461683965,0.001495611563491058
-0.38458515125,0.01854433246848339,-0.0005560632135495754
-0.38448749125,-0.001686808705119841,0.0004697741749707415
-0.38438983125,-0.001686808705119841,0.0004697741749707415
-0.38429217125,-0.001686808705119841,0.0004697741749707415
-0.38419451125,-0.002023994391346561,0.0004697741749707415
-0.38409685125,-0.001686808705119841,0.0004697741749707415
-0.38399919125,-0.002023994391346561,0.0004697741749707415
-0.38390153125,-0.001686808705119841,0.0004697741749707415
-0.38380387125,-0.002023994391346561,0.0004697741749707415
-0.38370621125,-0.002023994391346561,0.0004697741749707415
-0.38360855125,0.09677141167308254,0.0008117199711441804
-0.38351089125,-0.001686808705119841,0.0004697741749707415
-0.38341323125,-0.002023994391346561,0.0004697741749707415
-0.38331557125,-0.002023994391346561,0.0004697741749707415
-0.38321791125,-0.002023994391346561,0.0004697741749707415
-0.38312025125,-0.002023994391346561,0.0004697741749707415
-0.38302259125,-0.002023994391346561,0.0004697741749707415
-0.38292493125,-0.002023994391346561,0.0004697741749707415
-0.38282727125,-0.002023994391346561,0.0004697741749707415
-0.38272961125,-0.002023994391346561,0.0004697741749707415
-0.38263195125,0.09643422598685583,0.0008117199711441804
-0.38253429125,-0.001686808705119841,0.0001278283787973025
-0.38243663125,-0.002023994391346561,0.0004697741749707415
-0.38233897125,-0.002023994391346561,0.0004697741749707415
-0.38224131125,-0.002023994391346561,0.0004697741749707415
-0.38214365125,-0.002023994391346561,0.0004697741749707415
-0.38204599125,-0.002023994391346561,0.0004697741749707415
-0.3819483312500001,-0.002023994391346561,0.0004697741749707415
-0.3818506712500001,-0.002023994391346561,0.0004697741749707415
-0.3817530112500001,-0.002023994391346561,0.0004697741749707415
-0.3816553512500001,0.0960970403006291,0.001153665767317619
-0.3815576912500001,-0.00134962301889312,-0.0002141174173761364
-0.3814600312500001,-0.002023994391346561,0.0004697741749707415
-0.3813623712500001,-0.002361180077573282,0.0004697741749707415
-0.3812647112500001,-0.002023994391346561,0.0004697741749707415
-0.3811670512500001,-0.002023994391346561,0.0004697741749707415
-0.3810693912500001,-0.002023994391346561,0.0004697741749707415
-0.3809717312500001,-0.002361180077573282,0.0004697741749707415
-0.3808740712500001,-0.002361180077573282,0.0004697741749707415
-0.3807764112500001,-0.002361180077573282,0.0001278283787973025
-0.3806787512500001,0.097445783045536,0.001495611563491058
-0.3805810912500001,-0.0010124373326664,-0.0005560632135495754
-0.3804834312500001,-0.002361180077573282,0.0001278283787973025
-0.3803857712500001,-0.002361180077573282,0.0001278283787973025
-0.3802881112500001,-0.002698365763800002,0.0004697741749707415
-0.3801904512500001,-0.002698365763800002,0.0001278283787973025
-0.3800927912500001,-0.002698365763800002,0.0001278283787973025
-0.3799951312500001,-0.002698365763800002,0.0001278283787973025
-0.3798974712500001,-0.002698365763800002,0.0001278283787973025
-0.3797998112500001,-0.002698365763800002,0.0001278283787973025
-0.3797021512500001,-0.002698365763800002,0.0001278283787973025
-0.3796044912500001,0.09845734010421614,0.0004697741749707415
-0.3795068312500001,-0.002361180077527433,0.000127828378797458
-0.3794091712500001,-0.002698365763799849,0.0001278283787973025
-0.3793115112500001,-0.002698365763800002,0.0001278283787973025
-0.3792138512500001,-0.002698365763800002,0.0001278283787973025
-0.3791161912500001,-0.003035551450026569,0.0001278283787973025
-0.3790185312500001,-0.003035551450026723,0.0001278283787973025
-0.3789208712500001,-0.003035551450026723,0.0001278283787973025
-0.3788232112500001,-0.003035551450026723,0.0001278283787973025
-0.3787255512500001,-0.002698365763800156,0.0001278283787973025
-0.37862789125,0.09812015441794358,0.0004697741749704305
-0.37853023125,-0.002698365763800156,-0.0002141174173759809
-0.37843257125,-0.003035551450026723,0.0001278283787973025
-0.37833491125,-0.003035551450026569,0.0001278283787973025
-0.37823725125,-0.002698365763800002,0.0001278283787973025
-0.37813959125,-0.002698365763800002,0.0001278283787973025
-0.37804193125,-0.002698365763800156,0.0001278283787973025
-0.37794427125,-0.003035551450026723,0.0001278283787973025
-0.37784661125,-0.003035551450026723,0.0001278283787973025
-0.37774895125,-0.003035551449982103,0.000127828378797458
-0.37765129125,0.09508548324194896,0.0004697741749707415
-0.37755363125,-0.002361180077573282,-0.0005560632135495754
-0.37745597125,-0.003035551450026723,-0.0002141174173761364
-0.37735831125,-0.003372737136253443,0.0001278283787973025
-0.37726065125,-0.003035551450026723,0.0001278283787973025
-0.37716299125,-0.002698365763800002,0.0001278283787973025
-0.37706533125,-0.002698365763800002,0.0001278283787973025
-0.37696767125,-0.002698365763800002,0.0001278283787973025
-0.37687001125,-0.002698365763800002,0.0001278283787973025
-0.37677235125,-0.002698365763800002,0.0001278283787973025
-0.37667469125,0.09508548324194896,0.001153665767317619
-0.37657703125,-0.00134962301889312,-0.0005560632135495754
-0.37647937125,-0.002361180077573282,0.0001278283787973025
-0.37638171125,-0.002361180077573282,0.0001278283787973025
-0.37628405125,-0.002361180077573282,0.0001278283787973025
-0.37618639125,-0.002361180077573282,0.0001278283787973025
-0.37608873125,-0.002361180077573282,0.0001278283787973025
-0.37599107125,-0.002361180077573282,0.0001278283787973025
-0.37589341125,-0.002361180077573282,0.0001278283787973025
-0.37579575125,-0.002361180077573282,0.0001278283787973025
-0.37569809125,-0.002361180077573282,0.0004697741749707415
-0.37560043125,0.0960970403006291,0.0004697741749707415
-0.37550277125,-0.002361180077573282,0.0001278283787973025
-0.37540511125,-0.002698365763800002,0.0004697741749707415
-0.37530745125,-0.002361180077573282,0.0001278283787973025
-0.37520979125,-0.002361180077573282,0.0001278283787973025
-0.37511213125,-0.002361180077573282,0.0001278283787973025
-0.37501447125,-0.002698365763800002,0.0001278283787973025
-0.37491681125,-0.002361180077573282,0.0001278283787973025
-0.37481915125,-0.002361180077573282,0.0004697741749707415
-0.37472149125,-0.002361180077573282,0.0001278283787973025
-0.37462383125,0.09845734010421614,0.0004697741749707415
-0.37452617125,-0.002023994391346561,0.0001278283787973025
-0.37442851125,-0.002361180077573282,0.0001278283787973025
-0.37433085125,-0.002698365763800002,0.0001278283787973025
-0.37423319125,-0.002698365763800002,0.0001278283787973025
-0.37413553125,-0.002698365763800002,0.0001278283787973025
-0.37403787125,-0.002698365763800002,0.0001278283787973025
-0.37394021125,-0.002698365763800002,0.0001278283787973025
-0.37384255125,-0.002698365763800002,0.0001278283787973025
-0.37374489125,-0.002698365763800002,0.0001278283787973025
-0.37364723125,0.0977829687317627,0.0008117199711441804
-0.37354957125,-0.002361180077573282,-0.0005560632135495754
-0.37345191125,-0.002698365763800002,0.0001278283787973025
-0.37335425125,-0.002698365763800002,0.0001278283787973025
-0.37325659125,-0.003035551450026723,0.0001278283787973025
-0.37315893125,-0.003035551450026723,0.0001278283787973025
-0.37306127125,-0.003035551450026723,0.0001278283787973025
-0.37296361125,-0.003035551450026723,0.0001278283787973025
-0.37286595125,-0.003035551450026723,0.0001278283787973025
-0.3727682912500001,-0.003035551450026723,0.0001278283787973025
-0.3726706312500001,0.09710859735930927,0.001153665767317619
-0.3725729712500001,-0.001686808705119841,-0.0008980090097230142
-0.3724753112500001,-0.003035551450026723,0.0001278283787973025
-0.3723776512500001,-0.003035551450026723,0.0001278283787973025
-0.3722799912500001,-0.003372737136253443,0.0001278283787973025
-0.3721823312500001,-0.003035551450026723,-0.0002141174173761364
-0.3720846712500001,-0.003372737136253443,0.0001278283787973025
-0.3719870112500001,-0.003372737136253443,0.0001278283787973025
-0.3718893512500001,-0.003035551450026723,0.0001278283787973025
-0.3717916912500001,-0.003372737136253443,0.0001278283787973025
-0.3716940312500001,-0.003372737136253443,0.0001278283787973025
-0.3715963712500001,0.0957598546144024,0.0001278283787973025
-0.3714987112500001,-0.003035551450026723,-0.0002141174173761364
-0.3714010512500001,-0.003035551450026723,0.0001278283787973025
-0.3713033912500001,-0.003035551450026723,0.0001278283787973025
-0.3712057312500001,-0.003035551450026723,0.0001278283787973025
-0.3711080712500001,-0.003372737136253443,0.0001278283787973025
-0.3710104112500001,-0.003372737136253443,0.0001278283787973025
-0.3709127512500001,-0.003372737136253443,-0.0002141174173761364
-0.3708150912500001,-0.003372737136253443,0.0001278283787973025
-0.3707174312500001,-0.003372737136253443,0.0001278283787973025
-0.3706197712500001,0.09542266892817566,0.0004697741749707415
-0.3705221112500001,-0.003035551450026723,-0.0002141174173761364
-0.3704244512500001,-0.003372737136253443,0.0001278283787973025
-0.3703267912500001,-0.003372737136253443,0.0001278283787973025
-0.3702291312500001,-0.003372737136253443,0.0001278283787973025
-0.3701314712500001,-0.003372737136253443,0.0001278283787973025
-0.3700338112500001,-0.003372737136253443,0.0001278283787973025
-0.3699361512500001,-0.003372737136253443,0.0001278283787973025
-0.3698384912500001,-0.003372737136253443,0.0001278283787973025
-0.3697408312500001,-0.003372737136253443,0.0001278283787973025
-0.3696431712500001,0.09508548324190419,0.000469774174970586
-0.3695455112500001,-0.002698365763755539,-0.0005560632135491088
-0.36944785125,-0.003372737136253443,-0.0002141174173761364
-0.36935019125,-0.003372737136253443,-0.0002141174173761364
-0.36925253125,-0.003372737136253443,-0.0002141174173761364
-0.36915487125,-0.003372737136253443,-0.0002141174173759809
-0.36905721125,-0.003372737136253443,0.000127828378797147
-0.36895955125,-0.003372737136253443,-0.0002141174173761364
-0.36886189125,-0.003372737136253443,-0.0002141174173761364
-0.36876423125,-0.003372737136207903,-0.0002141174173756699
-0.36866657125,0.09677141167303746,0.0008117199711434029
-0.36856891125,-0.002361180077573742,-0.0008980090097227033
-0.36847125125,-0.003372737136253443,-0.0002141174173761364
-0.36837359125,-0.003372737136253443,0.0001278283787973025
-0.36827593125,-0.003372737136253443,0.0001278283787973025
-0.36817827125,-0.003035551450026723,0.0001278283787973025
-0.36808061125,-0.003035551450026723,0.0001278283787973025
-0.36798295125,-0.003372737136253443,-0.0002141174173761364
-0.36788529125,-0.003372737136253443,0.0001278283787973025
-0.36778763125,-0.003372737136253443,0.0001278283787973025
-0.36768997125,0.005056905019414569,0.0001278283787973025
-0.36759231125,0.08935332657609471,0.0001278283787973025
-0.36749465125,-0.003035551450026723,-0.0002141174173761364
-0.36739699125,-0.003372737136253443,0.0001278283787973025
-0.36729933125,-0.003035551450026723,0.0001278283787973025
-0.36720167125,-0.003035551450026723,0.0001278283787973025
-0.36710401125,-0.002698365763800002,0.0001278283787973025
-0.36700635125,-0.002698365763800002,0.0001278283787973025
