CSVTestFiles/TestESDAOving8_0.1.csv

#Digilent WaveForms Oscilloscope Acquisition
#Device Name: Discovery2
#Serial Number: SN:210321B278C5
#Date Time: 2025-03-28 12:07:59.568
#Sample rate: 800000Hz
#Samples: 8192
#Trigger: Source: Channel 1 Type: Edge Condition: Falling Level: 0 V Hyst.: Auto HoldOff: 0 s
#Channel 1: Range: 500 mV/div Offset: 0 V Sample Mode: Average
#Channel 2: Range: 500 mV/div Offset: 0 V Sample Mode: Average
#Wavegen Channel 1: Running
#Mode: Simple
#Type: Square
#Frequency: 1 kHz
#Period: 1 ms
#Amplitude: 500 mV
#Offset: 500 mV
#Symmetry: 1 %
#Phase: 0 °

Time (s),Channel 1 (V),Channel 2 (V)
-0.003189992042824074,-0.003709922822480164,-0.0005560632135495754
-0.003188742042824074,-0.003372737136253443,-0.0005560632135495754
-0.003187492042824073,-0.004721479881159558,0.0004697741749708969
-0.003186242042824074,-0.003035551450026723,0.0008117199711441804
-0.003184992042824073,-0.003035551450026723,0.0004697741749707415
-0.003183742042824074,-0.003035551450026723,-0.0005560632135495754
-0.003182492042824074,-0.002361180077573282,0.0001278283787973025
-0.003181242042824074,-0.002698365763799849,-0.0005560632135492644
-0.003179992042824074,-0.004047108508706885,-0.0002141174173761364
-0.003178742042824073,-0.002698365763800309,-0.001239954805895831
-0.003177492042824074,-0.003372737136253443,0.0001278283787973025
-0.003176242042824073,-0.004047108508706885,0.000127828378797458
-0.003174992042824074,-0.004047108508706885,0.0004697741749707415
-0.003173742042824074,-0.004384294194933605,0.0001278283787973025
-0.003172492042824074,-0.003372737136253443,0.0008117199711441804
-0.003171242042824074,-0.002023994391346561,-0.0005560632135495754
-0.003169992042824074,-0.002361180077573128,-0.0002141174173762919
-0.003168742042824074,-0.003372737136253443,0.0001278283787973025
-0.003167492042824073,-0.004047108508706271,-0.0005560632135495754
-0.003166242042824074,-0.002698365763800002,-0.0005560632135495754
-0.003164992042824073,-0.00303555145002611,0.0004697741749704305
-0.003163742042824074,-0.001686808705119841,-0.0002141174173761364
-0.003162492042824074,-0.004047108508706885,0.0001278283787973025
-0.003161242042824074,-0.002698365763800616,0.000469774174970586
-0.003159992042824074,-0.003709922822480164,-0.0002141174173761364
-0.003158742042824074,-0.003709922822480164,-0.0002141174173761364
-0.003157492042824074,-0.004721479881160325,0.0001278283787973025
-0.003156242042824073,-0.004384294194933146,-0.0002141174173761364
-0.003154992042824074,-0.003372737136253443,-0.0002141174173761364
-0.003153742042824073,-0.003372737136253443,-0.0002141174173761364
-0.003152492042824074,-0.002361180077573282,-0.0002141174173761364
-0.003151242042824074,-0.002361180077573282,0.0004697741749707415
-0.003149992042824074,-0.003035551450026416,0.000127828378797458
-0.003148742042824074,-0.003372737136253443,0.0001278283787973025
-0.003147492042824074,-0.003372737136253443,0.000469774174970586
-0.003146242042824074,-0.002023994391346561,-0.0002141174173761364
-0.003144992042824073,-0.002361180077574048,0.000469774174970586
-0.003143742042824074,-0.004047108508706885,0.0001278283787973025
-0.003142492042824073,-0.003372737136253443,-0.0002141174173761364
-0.003141242042824074,-0.004384294194933605,-0.0008980090097230142
-0.003139992042824074,-0.003035551450026723,0.0001278283787973025
-0.003138742042824074,-0.002361180077573588,0.000469774174970586
-0.003137492042824074,-0.002361180077573282,-0.0002141174173761364
-0.003136242042824073,-0.003035551450027336,0.000469774174970586
-0.003134992042824074,-0.004384294194933605,0.0001278283787973025
-0.003133742042824073,-0.003709922822479551,0.0004697741749710525
-0.003132492042824074,-0.002361180077573282,0.001153665767317619
-0.003131242042824074,-0.002698365763800002,0.0001278283787973025
-0.003129992042824074,-0.003372737136253443,0.0004697741749707415
-0.003128742042824074,-0.003372737136253443,0.0001278283787973025
-0.003127492042824074,-0.003372737136253443,-0.0002141174173759809
-0.003126242042824074,-0.005058665567387046,-0.0008980090097230142
-0.003124992042824073,-0.003035551450026569,0.0004697741749704305
-0.003123742042824074,-0.002698365763800002,-0.0002141174173761364
-0.003122492042824073,-0.002023994391346868,-0.0008980090097223922
-0.003121242042824074,-0.002698365763800002,0.0004697741749707415
-0.003119992042824074,-0.003035551450026723,-0.0002141174173761364
-0.003118742042824074,-0.002361180077573588,0.001153665767316997
-0.003117492042824074,-0.003035551450026723,0.0004697741749707415
-0.003116242042824074,-0.00337273713625329,-0.0002141174173758255
-0.003114992042824074,-0.003372737136253443,-0.0002141174173761364
-0.003113742042824073,-0.002361180077573742,0.0004697741749708969
-0.003112492042824074,-0.003372737136253443,0.0008117199711441804
-0.003111242042824073,-0.003709922822480164,0.0004697741749707415
-0.003109992042824074,-0.004384294194933605,0.0001278283787973025
-0.003108742042824074,-0.002023994391346561,0.0001278283787973025
-0.003107492042824074,-0.002361180077573128,-0.0002141174173759809
-0.003106242042824074,-0.002698365763800002,-0.0002141174173761364
-0.003104992042824074,-0.003035551450026569,0.0008117199711437139
-0.003103742042824074,-0.002023994391346561,0.0001278283787973025
-0.003102492042824073,-0.003709922822479551,0.001153665767316997
-0.003101242042824074,-0.002361180077573282,-0.0002141174173761364
-0.003099992042824073,-0.002698365763800002,-0.0005560632135495754
-0.003098742042824074,-0.003035551450026723,0.0001278283787973025
-0.003097492042824074,-0.003709922822480164,-0.0002141174173761364
-0.003096242042824074,-0.004384294194933298,0.0004697741749704305
-0.003094992042824074,-0.004384294194933605,0.0001278283787973025
-0.003093742042824073,-0.002698365763800002,0.0004697741749704305
-0.003092492042824074,-0.002698365763800002,-0.0002141174173761364
-0.003091242042824073,-0.002698365763800156,-0.0002141174173764474
-0.003089992042824074,-0.003035551450026723,-0.0008980090097230142
-0.003088742042824074,-0.003035551450026723,0.0004697741749707415
-0.003087492042824074,-0.004047108508706885,-0.0002141174173761364
-0.003086242042824074,-0.003372737136253443,-0.0005560632135495754
-0.003084992042824074,-0.002698365763800309,-0.0002141174173762919
-0.003083742042824074,-0.003709922822480164,0.0004697741749707415
-0.003082492042824073,-0.003372737136253597,-0.0002141174173758254
-0.003081242042824074,-0.003709922822480164,0.0004697741749707415
-0.003079992042824073,-0.001686808705120607,-0.0002141174173761364
-0.003078742042824074,-0.003372737136253443,-0.0002141174173761364
-0.003077492042824074,-0.003709922822480164,-0.0002141174173761364
-0.003076242042824074,-0.003372737136253443,-0.0008980090097230142
-0.003074992042824074,-0.003709922822480164,0.0008117199711441804
-0.003073742042824074,-0.002361180077573895,0.0008117199711441804
-0.003072492042824074,-0.003709922822480164,-0.0002141174173761364
-0.003071242042824073,-0.00337273713625329,-0.0005560632135489533
-0.003069992042824074,-0.003035551450026723,0.0008117199711441804
-0.003068742042824073,-0.002023994391346561,-0.0002141174173761364
-0.003067492042824074,-0.002698365763800002,0.0004697741749707415
-0.003066242042824074,-0.003709922822480164,0.0001278283787973025
-0.003064992042824074,-0.003709922822480164,0.000469774174970586
-0.003063742042824074,-0.003035551450026723,-0.0002141174173761364
-0.003062492042824074,-0.003709922822479857,-0.0002141174173761364
-0.003061242042824074,-0.003709922822480164,-0.0002141174173761364
-0.003059992042824073,-0.003709922822480164,-0.0005560632135492644
-0.003058742042824074,-0.003709922822480164,0.0001278283787973025
-0.003057492042824073,-0.002698365763800002,0.0008117199711441804
-0.003056242042824074,-0.002361180077573282,0.001495611563491058
-0.003054992042824074,-0.004384294194933605,0.0004697741749707415
-0.003053742042824074,-0.004047108508707038,-0.0005560632135491088
-0.003052492042824074,-0.004047108508706885,0.0004697741749707415
-0.003051242042824073,-0.003035551450026723,0.0004697741749701195
-0.003049992042824074,-0.003035551450026723,-0.0008980090097230142
-0.003048742042824073,-0.002361180077573742,-0.0005560632135492644
-0.003047492042824074,-0.003372737136253443,0.0001278283787973025
-0.003046242042824074,-0.003709922822480164,0.0008117199711441804
-0.003044992042824074,-0.004384294194933605,-0.0002141174173761364
-0.003043742042824074,-0.004047108508706885,0.0001278283787973025
-0.003042492042824074,-0.002698365763800616,0.0001278283787973025
-0.003041242042824074,-0.003372737136253443,0.001153665767317619
-0.003039992042824073,-0.002698365763799696,0.0004697741749704305
-0.003038742042824074,-0.002023994391346561,-0.0002141174173761364
-0.003037492042824073,-0.002698365763800616,-0.0002141174173762919
-0.003036242042824074,-0.004047108508706885,-0.0005560632135495754
-0.003034992042824074,-0.003372737136253443,0.0001278283787973025
-0.003033742042824074,-0.003709922822480164,-0.0002141174173761364
-0.003032492042824074,-0.003372737136253443,-0.0005560632135495754
-0.003031242042824074,-0.001686808705120607,0.0001278283787969916
-0.003029992042824074,-0.004047108508706885,0.0001278283787973025
-0.003028742042824073,-0.00370992282248047,0.0004697741749707415
-0.003027492042824074,-0.004384294194933605,0.0004697741749707415
-0.003026242042824073,-0.004047108508706885,0.0008117199711441804
-0.003024992042824074,-0.003709922822480164,-0.0008980090097230142
-0.003023742042824074,-0.003035551450026723,-0.0005560632135495754
-0.003022492042824074,-0.003035551450026723,0.0001278283787969916
-0.003021242042824074,-0.003372737136253443,-0.0002141174173761364
-0.003019992042824074,-0.002023994391347175,0.000127828378797147
-0.003018742042824074,-0.003035551450026723,0.0004697741749707415
-0.003017492042824073,-0.003372737136253597,-0.0008980090097230142
-0.003016242042824074,-0.003709922822480164,-0.0008980090097230142
-0.003014992042824073,-0.002023994391346561,0.0001278283787973025
-0.003013742042824074,-0.003372737136253443,-0.0002141174173761364
-0.003012492042824074,-0.003372737136253443,0.0008117199711441804
-0.003011242042824074,0.2313085004774373,0.003547286340530448
-0.003009992042824074,0.9835697664493575,0.01277982283721454
-0.003008742042824074,0.9849185091942637,0.01175398544869469
-0.003007492042824074,0.9839069521355842,0.01209593124486767
-0.003006242042824073,0.9839069521355835,0.01277982283721408
-0.003004992042824074,0.9825582093906773,0.01175398544869423
-0.003003742042824073,0.982895395076904,0.01175398544869423
-0.003002492042824074,0.984244137821811,0.01107009385634735
-0.003001242042824074,0.4815002796577706,0.003205340544358253
-0.002999992042824074,-0.005395851253392314,-0.003291629582934133
-0.002998742042824074,-0.003709922822480164,-0.002949683786763648
-0.002997492042824073,-0.002023994391346255,-0.002265792194416614
-0.002996242042824074,-0.00134962301889312,-0.001923846398243331
-0.002994992042824073,-0.001349623018892967,-0.002265792194416926
-0.002993742042824074,-0.0010124373326664,-0.002607737990590209
-0.002992492042824074,-0.0006752516464396792,-0.002607737990590209
-0.002991242042824074,-0.0006752516464396792,-0.001923846398243331
-0.002989992042824074,-0.0006752516464396792,-0.00226579219441677
-0.002988742042824074,-0.001012437332666246,-0.00226579219441677
-0.002987492042824074,-0.0003380659602129587,-0.001923846398243331
-0.002986242042824073,-0.0006752516464398325,-0.002607737990589898
-0.002984992042824074,-0.0010124373326664,-0.001923846398243331
-0.002983742042824073,-0.000338065960213572,-0.001581900602070048
-0.002982492042824074,-0.001686808705119841,-0.001923846398243331
-0.002981242042824074,-0.0010124373326664,-0.001923846398243331
-0.002979992042824074,-0.002023994391346102,-0.001581900602070048
-0.002978742042824074,-0.0006752516464396792,-0.001239954805896453
-0.002977492042824074,-0.002023994391345948,-0.001239954805896453
-0.002976242042824074,-0.00134962301889312,-0.001239954805896453
-0.002974992042824073,-0.00134962301889358,-0.001923846398242865
-0.002973742042824074,-0.002361180077573282,-0.0008980090097230142
-0.002972492042824073,-0.00134962301889312,-0.0008980090097230142
-0.002971242042824074,-0.00134962301889312,-0.001923846398243331
-0.002969992042824074,-0.00134962301889312,-0.001239954805896453
-0.002968742042824074,-0.001686808705119687,-0.001581900602069737
-0.002967492042824074,-0.00134962301889312,-0.00226579219441677
-0.002966242042824074,-0.001012437332666553,-0.00123995480589692
-0.002964992042824074,-0.002023994391346561,-0.0008980090097230142
-0.002963742042824073,-0.001349623018893734,-0.0002141174173767584
-0.002962492042824074,-0.002698365763800002,-0.001581900602069892
-0.002961242042824073,-0.003035551450026723,-0.001581900602069892
-0.002959992042824074,-0.002023994391346561,-0.001581900602069892
-0.002958742042824074,-0.002698365763800002,-0.001239954805896453
-0.002957492042824074,-0.001686808705120301,-0.0008980090097231697
-0.002956242042824074,-0.001686808705119841,0.0001278283787973025
-0.002954992042824073,-0.002361180077572668,-0.0005560632135495754
-0.002953742042824074,-0.0010124373326664,-0.0005560632135495754
-0.002952492042824073,-0.001012437332667013,-0.001239954805896609
-0.002951242042824074,-0.002361180077573282,-0.001581900602069892
-0.002949992042824074,-0.002698365763800002,-0.001581900602069892
-0.002948742042824074,-0.001686808705119841,-0.0002141174173761364
-0.002947492042824074,-0.001686808705119841,-0.001239954805896453
-0.002946242042824074,-0.002698365763799542,-0.0002141174173766029
-0.002944992042824074,-0.00134962301889312,0.0001278283787973025
-0.002943742042824073,-0.002023994391346561,-0.0005560632135497308
-0.002942492042824074,-0.002023994391346561,-0.0008980090097230142
-0.002941242042824073,-0.00337273713625283,-0.0008980090097231697
-0.002939992042824074,-0.002023994391346561,-0.001239954805896453
-0.002938742042824074,-0.003372737136253443,-0.0008980090097230142
-0.002937492042824074,-0.002023994391347175,0.0008117199711434027
-0.002936242042824074,-0.002361180077573282,-0.0002141174173761364
-0.002934992042824074,-0.001686808705120147,-0.0008980090097227033
-0.002933742042824074,-0.002698365763800002,-0.0005560632135495754
-0.002932492042824073,-0.001686808705120914,-0.0005560632135494199
-0.002931242042824074,-0.004047108508706885,-0.0002141174173761364
-0.002929992042824073,-0.003372737136253443,-0.0005560632135495754
-0.002928742042824074,-0.003035551450026723,0.0001278283787973025
-0.002927492042824074,-0.003709922822480164,-0.0005560632135495754
-0.002926242042824074,-0.002698365763800462,-0.0002141174173762919
-0.002924992042824074,-0.002361180077573282,-0.0008980090097230142
-0.002923742042824074,-0.002361180077573282,-0.0002141174173764474
-0.002922492042824074,-0.002698365763800002,0.0004697741749707415
-0.002921242042824073,-0.002361180077572975,-0.0002141174173766029
-0.002919992042824074,-0.001686808705119841,-0.001239954805896453
-0.002918742042824073,-0.002698365763800002,-0.0002141174173761364
-0.002917492042824074,-0.002698365763800002,-0.0002141174173761364
-0.002916242042824074,-0.002698365763800002,-0.0005560632135495754
-0.002914992042824074,-0.003035551450026569,-0.0002141174173762919
-0.002913742042824074,-0.003035551450026723,-0.0002141174173761364
-0.002912492042824073,-0.003372737136253443,-0.001239954805896142
-0.002911242042824074,-0.003372737136253443,-0.0005560632135495754
-0.002909992042824073,-0.002361180077573282,-0.0002141174173761364
-0.002908742042824074,-0.002361180077573282,-0.0002141174173761364
-0.002907492042824074,-0.003035551450026723,-0.0005560632135495754
-0.002906242042824074,-0.002023994391346561,-0.0008980090097230142
-0.002904992042824074,-0.001686808705119841,-0.0008980090097230142
-0.002903742042824074,-0.003372737136252676,-0.0005560632135497308
-0.002902492042824074,-0.002698365763800002,-0.0008980090097230142
-0.002901242042824073,-0.002698365763799696,0.000127828378797147
-0.002899992042824074,-0.002023994391346561,-0.0002141174173761364
-0.002898742042824073,-0.003372737136253443,-0.0005560632135492644
-0.002897492042824074,-0.003372737136253443,0.0001278283787973025
-0.002896242042824074,-0.003372737136253443,0.0001278283787973025
-0.002894992042824074,-0.003372737136253443,-0.0002141174173759809
-0.002893742042824074,-0.003709922822480164,-0.0005560632135495754
-0.002892492042824074,-0.00303555145002703,-0.0002141174173762919
-0.002891242042824074,-0.003372737136253443,-0.0005560632135495754
-0.002889992042824073,-0.004047108508706578,0.0001278283787969915
-0.002888742042824074,-0.003372737136253443,-0.0005560632135495754
-0.002887492042824073,-0.002698365763800002,0.0001278283787973025
-0.002886242042824074,-0.001686808705119841,0.0001278283787973025
-0.002884992042824074,-0.002698365763800002,0.0008117199711441804
-0.002883742042824074,-0.003709922822479704,-0.0005560632135489535
-0.002882492042824074,-0.002698365763800002,-0.0002141174173761364
-0.002881242042824074,-0.002361180077573435,0.000127828378797147
-0.002879992042824074,-0.003709922822480164,-0.0005560632135495754
-0.002878742042824073,-0.003372737136253443,-0.0002141174173764474
-0.002877492042824074,-0.003372737136253443,-0.0008980090097230142
-0.002876242042824073,-0.003035551450026723,-0.0005560632135495754
-0.002874992042824074,-0.003035551450026723,0.0001278283787973025
-0.002873742042824074,-0.002361180077573282,-0.0002141174173761364
-0.002872492042824074,-0.002698365763799849,0.000127828378797147
-0.002871242042824074,-0.003709922822480164,0.0001278283787973025
-0.002869992042824073,-0.002361180077573588,0.000127828378796836
-0.002868742042824074,-0.003035551450026723,-0.0008980090097230142
-0.002867492042824073,-0.002698365763800156,-0.0002141174173761364
-0.002866242042824074,-0.003035551450026723,-0.0002141174173761364
-0.002864992042824074,-0.004384294194933605,0.0001278283787973025
-0.002863742042824074,-0.004047108508706885,-0.0002141174173761364
-0.002862492042824074,-0.002698365763800002,-0.0002141174173761364
-0.002861242042824074,-0.003035551450026569,0.000127828378797147
-0.002859992042824074,-0.003372737136253443,-0.0002141174173761364
-0.002858742042824073,-0.003709922822480164,0.0001278283787973025
-0.002857492042824074,-0.003709922822480164,0.0001278283787973025
-0.002856242042824073,-0.002698365763799849,-0.0008980090097228588
-0.002854992042824074,-0.002361180077573282,-0.0005560632135495754
-0.002853742042824074,-0.002698365763800002,0.0008117199711441804
-0.002852492042824074,-0.002698365763800002,-0.0002141174173756699
-0.002851242042824074,-0.004384294194933605,-0.0008980090097230142
-0.002849992042824074,-0.004047108508707038,-0.0008980090097230142
-0.002848742042824074,-0.003709922822480164,0.0001278283787973025
-0.002847492042824073,-0.003035551450026876,0.000469774174970586
-0.002846242042824074,-0.003372737136253443,0.0001278283787973025
-0.002844992042824073,-0.002698365763800002,-0.0002141174173761364
-0.002843742042824074,-0.003035551450026723,-0.0002141174173761364
-0.002842492042824074,-0.001686808705119841,0.0001278283787973025
-0.002841242042824074,-0.003709922822479244,-0.0008980090097225478
-0.002839992042824074,-0.002698365763800002,-0.0002141174173761364
-0.002838742042824074,-0.003709922822479704,-0.0005560632135494199
-0.002837492042824074,-0.002698365763800002,0.0004697741749707415
-0.002836242042824073,-0.003709922822480317,-0.0005560632135495754
-0.002834992042824074,-0.004047108508706885,-0.0005560632135495754
-0.002833742042824073,-0.003035551450026723,0.0008117199711441804
-0.002832492042824074,-0.002361180077573282,-0.0005560632135495754
-0.002831242042824074,-0.003709922822480164,-0.0002141174173761364
-0.002829992042824074,-0.004384294194933298,0.0004697741749704305
-0.002828742042824074,-0.003709922822480164,0.0001278283787973025
-0.002827492042824073,-0.00337273713625329,-0.001239954805896298
-0.002826242042824074,-0.003035551450026723,-0.0008980090097230142
-0.002824992042824073,-0.002361180077573435,0.0001278283787969915
