CSVTestFiles/TestESDAOving8_01_4MHz.csv

#Digilent WaveForms Oscilloscope Acquisition
#Device Name: Discovery2
#Serial Number: SN:210321B278C5
#Date Time: 2025-03-28 13:02:50.228
#Sample rate: 4e+06Hz
#Samples: 8192
#Trigger: Source: Channel 1 Type: Edge Condition: Falling Level: 0 V Hyst.: Auto HoldOff: 0 s
#Channel 1: Range: 10 mV/div Offset: -28 mV Sample Mode: Average
#Channel 2: Range: 500 mV/div Offset: 0 V Sample Mode: Average
#Wavegen Channel 1: Running
#Mode: Simple
#Type: Square
#Frequency: 1 kHz
#Period: 1 ms
#Amplitude: 500 mV
#Offset: 500 mV
#Symmetry: 1 %
#Phase: 0 °

Time (s),Channel 1 (V),Channel 2 (V)
-0.0005418928571428571,0.0003486229599497098,0.0004697741749707415
-0.0005416428571428571,-0.001000119784957629,0.0001278283787973025
-0.0005413928571428573,-0.002011676843636874,0.0001278283787973025
-0.0005411428571428572,-0.001000119784957629,0.001153665767317153
-0.0005408928571428572,-0.001674491157410612,0.0004697741749707415
-0.0005406428571428572,-0.003360419588544217,0.0008117199711441804
-0.0005403928571428571,-0.002348862529864052,-0.0005560632135495754
-0.0005401428571428571,-0.001337305471184351,0.0008117199711440249
-0.0005398928571428571,-0.002348862529864359,0.0004697741749708969
-0.0005396428571428572,-0.003023233902317189,0.0008117199711440249
-0.0005393928571428572,-0.002686048216090774,0.0004697741749707415
-0.0005391428571428572,0.0006858086461764314,0.001153665767317619
-0.0005388928571428571,0.0003486229599497098,0.0008117199711441804
-0.0005386428571428571,-0.001337305471183891,0.001495611563491058
-0.0005383928571428571,-0.002348862529863899,0.001153665767317619
-0.0005381428571428573,-0.002011676843637488,0.001153665767317619
-0.0005378928571428572,-0.003023233902317035,0.0001278283787977689
-0.0005376428571428572,-0.003360419588544217,-0.0002141174173761364
-0.0005373928571428572,-0.002686048216090774,0.0008117199711441804
-0.0005371428571428571,-0.002348862529864052,0.0001278283787973025
-0.0005368928571428571,-0.001674491157410306,-0.0005560632135491088
-0.0005366428571428571,-0.001000119784957629,0.0004697741749707415
-0.0005363928571428572,-0.002011676843636874,0.0004697741749707415
-0.0005361428571428572,-0.001337305471184198,-0.0008980090097223923
-0.0005358928571428572,-0.004371976647224378,0.0001278283787973025
-0.0005356428571428571,-0.003697605274770935,0.0004697741749707415
-0.0005353928571428571,-0.002686048216090774,0.0008117199711441804
-0.0005351428571428571,-0.00336041958854437,0.001153665767317619
-0.000534892857142857,-0.003697605274770781,0.001153665767317308
-0.0005346428571428572,-0.00336041958854437,0.0004697741749710525
-0.0005343928571428572,-0.004034790960997653,0.0004697741749707415
-0.0005341428571428572,-0.003023233902317495,0.0004697741749707415
-0.0005338928571428571,0.0003486229599497098,0.002179503155837936
-0.0005336428571428571,0.000685808646175818,0.001837557359664653
-0.0005333928571428571,-0.000662934098731218,0.002179503155837469
-0.0005331428571428572,-0.002348862529863285,0.001153665767318086
-0.0005328928571428572,-0.002348862529864052,0.0008117199711443359
-0.0005326428571428572,-0.003023233902317495,0.0004697741749707415
-0.0005323928571428571,-0.003023233902317495,0.0008117199711441804
-0.0005321428571428571,-0.001674491157410612,0.0008117199711441804
-0.0005318928571428571,-0.001674491157410459,0.000469774174970586
-0.000531642857142857,-0.001337305471183431,0.0001278283787969915
-0.0005313928571428572,-0.0003257484125041897,-0.0005560632135492644
-0.0005311428571428572,-0.001674491157410612,0.0001278283787973025
-0.0005308928571428572,-0.003360419588544217,0.0004697741749707415
-0.0005306428571428571,-0.003023233902317495,0.0001278283787973025
-0.0005303928571428571,-0.003697605274770935,-0.0002141174173761364
-0.0005301428571428571,-0.003023233902316882,0.000127828378797147
-0.0005298928571428572,-0.001674491157411226,-0.0002141174173759809
-0.0005296428571428572,-0.001337305471184044,0.000127828378797147
-0.0005293928571428572,-0.002686048216090774,0.0001278283787973025
-0.0005291428571428571,-0.003023233902317495,0.0004697741749707415
-0.0005288928571428571,-0.003360419588544217,0.0001278283787973025
-0.0005286428571428571,-0.003023233902317649,-0.0002141174173755144
-0.000528392857142857,-0.00336041958854391,0.001153665767317464
-0.0005281428571428572,-0.00268604821609108,0.0008117199711443359
-0.0005278928571428572,-0.0006629340987304513,0.001837557359664497
-0.0005276428571428572,0.0003486229599497098,0.001153665767317619
-0.0005273928571428571,-0.002011676843637334,0.001153665767317619
-0.0005271428571428571,-0.002348862529864052,0.0008117199711441804
-0.0005268928571428571,-0.002348862529864052,0.0008117199711441804
-0.0005266428571428573,-0.002348862529864052,0.0008117199711441804
-0.0005263928571428572,-0.00268604821609062,0.0008117199711441804
-0.0005261428571428572,-0.003360419588544217,0.001837557359664497
-0.0005258928571428572,-0.003697605274770935,0.0008117199711441804
-0.0005256428571428571,-0.003360419588544217,0.0008117199711441804
-0.0005253928571428571,-0.002011676843637334,0.0008117199711444913
-0.0005251428571428571,-0.002011676843637334,0.001495611563490281
-0.0005248928571428572,-0.002011676843637334,-0.0002141174173753589
-0.0005246428571428572,-0.002686048216090774,0.0001278283787973025
-0.0005243928571428572,-0.002686048216090774,0.0008117199711441804
-0.0005241428571428571,-0.003360419588544217,0.001837557359664497
-0.0005238928571428571,-0.001000119784957169,0.0004697741749707415
-0.0005236428571428571,1.143727372268508e-05,0.0004697741749707415
-0.0005233928571428573,-0.0006629340987301446,0.0004697741749707415
-0.0005231428571428572,-0.001000119784957016,-0.0002141174173758255
-0.0005228928571428572,-0.002011676843637334,0.0001278283787973025
-0.0005226428571428572,-0.001337305471183891,0.0001278283787973025
-0.0005223928571428571,-0.002686048216090774,-0.0002141174173761364
-0.0005221428571428571,-0.004371976647223458,0.0001278283787976135
-0.0005218928571428571,-0.002348862529864052,0.0008117199711441804
-0.0005216428571428572,-0.002348862529864052,0.0008117199711441804
-0.0005213928571428572,-0.002348862529864052,0.0008117199711441804
-0.0005211428571428572,-0.001674491157410612,0.0001278283787973025
-0.0005208928571428571,-0.003697605274770935,0.0001278283787973025
-0.0005206428571428571,-0.003697605274770935,0.0008117199711441804
-0.0005203928571428571,-0.002348862529864052,0.001153665767317308
-0.0005201428571428573,-0.002348862529864052,0.0004697741749710525
-0.0005198928571428572,-0.00268604821609062,0.0008117199711440249
-0.0005196428571428572,-0.003697605274770935,0.0004697741749707415
-0.0005193928571428572,-0.003023233902317495,0.0004697741749707415
-0.0005191428571428571,-0.003023233902317495,0.0008117199711441804
-0.0005188928571428571,-0.0006629340987304513,0.001153665767317308
-0.0005186428571428571,-0.0006629340987307581,0.000469774174970275
-0.0005183928571428572,-0.001337305471183584,-0.0005560632135491088
-0.0005181428571428572,-0.001337305471183891,-0.0005560632135495754
-0.0005178928571428572,-0.002011676843637334,-0.0005560632135495754
-0.0005176428571428571,-0.002011676843637334,0.0008117199711441804
-0.0005173928571428571,-0.001337305471183891,-0.0005560632135495754
-0.0005171428571428571,-0.001000119784957629,-0.0002141174173758254
-0.0005168928571428573,-0.002011676843636874,0.0004697741749704305
-0.0005166428571428572,-0.001674491157410766,-0.0002141174173758255
-0.0005163928571428572,-0.0006629340987304513,0.0001278283787973025
-0.0005161428571428572,-0.001674491157410612,0.0004697741749707415
-0.0005158928571428571,-0.002011676843637334,0.0004697741749707415
-0.0005156428571428571,-0.0006629340987309114,0.0004697741749708969
-0.0005153928571428571,-0.001674491157411226,0.0008117199711438694
-0.0005151428571428572,-0.003023233902316882,0.0001278283787976135
-0.0005148928571428572,-0.002348862529864052,0.001153665767317619
-0.0005146428571428572,-0.001337305471183891,0.001837557359664497
-0.0005143928571428571,-0.0003257484125037298,0.001495611563491058
-0.0005141428571428571,-0.001337305471183891,0.001495611563491058
-0.0005138928571428571,-0.001674491157410766,0.0008117199711444913
-0.0005136428571428573,-0.002011676843637181,0.001495611563490747
-0.0005133928571428572,-0.003360419588543604,0.0008117199711444913
-0.0005131428571428572,-0.003697605274770935,0.0008117199711441804
-0.0005128928571428572,-0.003360419588544217,-0.0002141174173761364
-0.0005126428571428571,-0.002011676843637334,0.0008117199711441804
-0.0005123928571428571,-0.00268604821609154,0.0004697741749707415
-0.0005121428571428571,-0.004371976647223765,0.000469774174970586
-0.0005118928571428572,-0.003023233902318108,0.000127828378797458
-0.0005116428571428572,-0.001674491157411226,0.0001278283787973025
-0.0005113928571428572,-0.0003257484125037298,0.0004697741749707415
-0.0005111428571428571,-0.0003257484125037298,0.0008117199711441804
-0.0005108928571428571,-0.001337305471183891,0.0004697741749707415
-0.0005106428571428571,-0.002348862529864359,0.0004697741749704305
-0.000510392857142857,-0.003023233902316728,-0.0002141174173762919
-0.0005101428571428572,-0.001337305471184658,-0.0005560632135494199
-0.0005098928571428572,1.143727372299175e-05,-0.0005560632135495754
-0.0005096428571428572,-0.001000119784957169,-0.001923846398243331
-0.0005093928571428571,-0.002011676843637334,-0.001581900602069892
-0.0005091428571428571,-0.001674491157410612,0.0008117199711441804
-0.0005088928571428571,-0.003360419588544523,0.001153665767316997
-0.0005086428571428572,-0.004034790960997346,-0.0002141174173755146
-0.0005083928571428572,-0.002686048216091387,0.000127828378797147
-0.0005081428571428572,-0.002348862529864052,0.001153665767317619
-0.0005078928571428571,-0.002011676843637334,0.001495611563491058
-0.0005076428571428571,-0.003023233902317495,0.0001278283787973025
-0.0005073928571428571,-0.00268604821609062,0.0004697741749712079
-0.000507142857142857,-0.002348862529864052,0.001495611563490903
-0.0005068928571428572,-0.002348862529864052,0.001153665767317775
-0.0005066428571428572,-0.002686048216090774,0.0004697741749707415
-0.0005063928571428572,-0.001000119784957169,0.0008117199711441804
-0.0005061428571428571,-0.001337305471183891,0.002179503155837936
-0.0005058928571428571,-0.003360419588544217,0.001837557359664497
-0.0005056428571428571,-0.00336041958854437,0.001495611563490903
-0.0005053928571428572,-0.003697605274770781,0.001153665767317775
-0.0005051428571428572,-0.002686048216091233,0.001837557359664186
-0.0005048928571428572,-0.001337305471183891,0.0008117199711441804
-0.0005046428571428571,-0.001000119784957169,0.0008117199711441804
-0.0005043928571428571,-0.001674491157410612,0.0008117199711441804
-0.0005041428571428571,-0.002011676843637181,0.0004697741749704305
-0.0005038928571428571,-0.001674491157410306,-0.0002141174173758254
-0.0005036428571428572,-0.001000119784957476,0.0004697741749704305
-0.0005033928571428572,-0.001337305471183891,0.001495611563491058
-0.0005031428571428572,-0.001337305471183891,0.001495611563491058
-0.0005028928571428571,-0.001337305471183891,0.0001278283787973025
-0.0005026428571428571,-0.002348862529864052,-0.0005560632135495754
-0.0005023928571428571,-0.002348862529863899,0.0001278283787973025
-0.0005021428571428573,-0.002011676843637488,0.0001278283787973025
-0.0005018928571428572,-0.001337305471184198,-0.0002141174173759809
-0.0005016428571428572,-0.002686048216090774,-0.0008980090097230142
-0.0005013928571428572,-0.002686048216090774,-0.0008980090097230142
-0.0005011428571428571,-0.001674491157410612,-0.001239954805896453
-0.0005008928571428571,-0.002348862529863745,-0.0005560632135492644
-0.0005006428571428571,-0.001674491157411072,0.0001278283787973025
-0.0005003928571428572,-0.002686048216090314,0.0001278283787973025
-0.0005001428571428572,-0.002011676843637334,-0.0005560632135495754
-0.0004998928571428572,-0.001000119784957169,0.0004697741749707415
-0.0004996428571428571,-0.002011676843637334,0.001153665767317619
-0.0004993928571428571,-0.003023233902317495,0.001153665767317619
-0.0004991428571428571,-0.003697605274771241,0.000127828378797769
-0.0004988928571428573,-0.004371976647224071,0.001153665767317153
-0.0004986428571428572,-0.003360419588544676,-0.0002141174173755146
-0.0004983928571428572,-0.002686048216090774,-0.0005560632135495754
-0.0004981428571428572,-0.003360419588544217,0.0001278283787973025
-0.0004978928571428571,-0.002686048216090774,0.0004697741749707415
-0.0004976428571428571,-0.00268604821609062,0.0001278283787969915
-0.0004973928571428571,-0.002348862529864206,-0.0005560632135489533
-0.0004971428571428572,-0.00268604821609062,0.0008117199711435585
-0.0004968928571428572,-0.002686048216090774,0.0008117199711441804
-0.0004966428571428572,-0.001337305471183891,0.001153665767317619
-0.0004963928571428571,-0.001674491157410612,0.001495611563491058
-0.0004961428571428571,-0.0003257484125037298,0.0001278283787973025
-0.0004958928571428571,-0.001337305471183431,-0.0002141174173752034
-0.0004956428571428573,-0.0003257484125041897,0.001837557359663564
-0.0004953928571428572,-0.003360419588542837,0.002521448952011064
-0.0004951428571428572,-0.002686048216090774,0.001495611563491058
-0.0004948928571428572,-0.002348862529864052,0.0008117199711441804
-0.0004946428571428571,-0.002011676843637334,0.001153665767317619
-0.0004943928571428572,1.143727372299175e-05,0.0001278283787973025
-0.0004941428571428572,-0.001674491157410612,0.0004697741749707415
-0.0004938928571428571,-0.002011676843637334,-0.0002141174173761364
-0.0004936428571428571,-0.0003257484125037298,-0.0008980090097230142
-0.0004933928571428572,-0.0003257484125037298,-0.0005560632135495754
-0.0004931428571428571,-0.002348862529864052,0.0001278283787973025
-0.0004928928571428571,-0.001337305471183891,0.0008117199711441804
-0.0004926428571428572,-0.001337305471183891,0.0004697741749707415
-0.0004923928571428572,-0.0003257484125037298,0.0001278283787973025
-0.0004921428571428571,-0.001000119784957169,-0.0002141174173761364
-0.0004918928571428572,-0.003023233902317495,0.001153665767317619
-0.0004916428571428572,-0.001674491157410612,0.001495611563491058
-0.0004913928571428571,-0.001337305471183891,0.0001278283787973025
-0.0004911428571428572,-0.002348862529864052,0.0004697741749707415
-0.0004908928571428572,-0.001337305471183891,0.0004697741749707415
-0.0004906428571428571,-0.003697605274770935,0.0004697741749707415
-0.0004903928571428571,-0.002686048216090774,0.0001278283787973025
-0.0004901428571428572,-0.001337305471183891,-0.0002141174173761364
-0.0004898928571428571,-0.001337305471183891,-0.0005560632135495754
-0.0004896428571428571,-0.001674491157410612,0.0008117199711441804
-0.0004893928571428572,-0.001674491157410612,0.0008117199711441804
-0.0004891428571428572,-0.002348862529864052,0.0008117199711441804
-0.0004888928571428571,-0.004371976647224378,0.0001278283787973025
-0.0004886428571428572,-0.003697605274770935,0.0004697741749707415
-0.0004883928571428572,-0.002686048216090774,0.0001278283787973025
-0.0004881428571428571,-0.002686048216090774,0.0001278283787973025
-0.0004878928571428572,-0.002686048216090774,0.001153665767317619
-0.0004876428571428572,-0.001337305471183891,0.0008117199711441804
-0.0004873928571428571,-0.001000119784957169,0.0008117199711441804
-0.0004871428571428571,-0.002348862529864052,0.0008117199711441804
-0.0004868928571428572,-0.003360419588544217,0.0008117199711441804
-0.0004866428571428571,-0.002011676843637334,0.001153665767317619
-0.0004863928571428571,-0.002348862529864052,0.0004697741749707415
-0.0004861428571428572,-0.002348862529864052,0.0001278283787973025
-0.0004858928571428572,-0.002348862529864052,-0.0002141174173761364
-0.0004856428571428571,-0.002011676843637334,0.0001278283787973025
-0.0004853928571428572,-0.003023233902317495,0.001495611563491058
-0.0004851428571428572,-0.001674491157410612,0.001837557359664497
-0.0004848928571428571,0.0003486229599497098,0.0008117199711441804
-0.0004846428571428572,1.143727372299175e-05,0.0001278283787973025
-0.0004843928571428572,-0.0003257484125037298,0.0008117199711441804
-0.0004841428571428571,-0.001000119784957169,0.0001278283787973025
-0.0004838928571428571,-0.002011676843637334,0.001153665767317619
-0.0004836428571428572,-0.002686048216090774,0.0004697741749707415
-0.0004833928571428571,-0.002011676843637334,0.001495611563491058
-0.0004831428571428571,-0.002686048216090774,0.001153665767317619
-0.0004828928571428572,-0.002011676843637334,0.001495611563491058
-0.0004826428571428572,1.143727372299175e-05,-0.0005560632135495754
-0.0004823928571428571,-0.001000119784957169,-0.0008980090097230142
-0.0004821428571428572,-0.001337305471183891,-0.0002141174173761364
-0.0004818928571428572,1.143727372299175e-05,-0.0005560632135495754
-0.0004816428571428571,-0.001337305471183891,0.0001278283787973025
-0.0004813928571428571,-0.003360419588544217,0.0001278283787973025
-0.0004811428571428572,-0.003023233902317495,-0.0008980090097230142
-0.0004808928571428571,-0.002348862529864052,0.0001278283787973025
-0.0004806428571428571,-0.002011676843637334,0.001153665767317619
-0.0004803928571428572,-0.002686048216090774,0.0001278283787973025
-0.0004801428571428572,-0.003023233902317495,0.0008117199711441804
-0.0004798928571428571,-0.001337305471183891,0.001837557359664497
-0.0004796428571428572,-0.002348862529864052,0.001837557359664497
-0.0004793928571428572,-0.002348862529864052,0.001495611563491058
-0.0004791428571428571,-0.002011676843637334,0.0004697741749707415
-0.0004788928571428572,-0.001000119784957169,0.0001278283787973025
-0.0004786428571428572,-0.002011676843637334,0.0004697741749707415
-0.0004783928571428571,-0.002686048216090774,0.001495611563491058
-0.0004781428571428571,-0.002686048216090774,0.0004697741749707415
-0.0004778928571428572,-0.003697605274770935,0.0001278283787973025
-0.0004776428571428571,-0.003697605274770935,0.0004697741749707415
-0.0004773928571428571,-0.003697605274770935,0.001837557359664497
-0.0004771428571428572,-0.003360419588544217,0.002863394748184814
-0.0004768928571428572,-0.001674491157410612,0.0008117199711441804
-0.0004766428571428571,-0.001000119784957169,-0.0002141174173761364
-0.0004763928571428572,-0.002011676843637334,0.001153665767317619
-0.0004761428571428572,-0.0006629340987304513,0.0008117199711441804
-0.0004758928571428571,-0.001000119784957169,0.0008117199711441804
-0.0004756428571428572,-0.001674491157410612,0.0004697741749707415
-0.0004753928571428572,-0.001674491157410612,0.0001278283787973025
-0.0004751428571428571,-0.002011676843637334,0.0008117199711441804
-0.0004748928571428571,-0.001674491157410612,0.0004697741749707415
-0.0004746428571428572,-0.001000119784957169,0.0004697741749707415
-0.0004743928571428571,-0.002011676843637334,0.0004697741749707415
-0.0004741428571428571,-0.002686048216090774,0.0001278283787973025
-0.0004738928571428572,-0.002348862529864052,0.0001278283787973025
-0.0004736428571428572,-0.003360419588544217,0.0004697741749707415
-0.0004733928571428571,-0.002686048216090774,-0.0002141174173761364
-0.0004731428571428572,-0.002348862529864052,0.0004697741749707415
-0.0004728928571428572,-0.0006629340987304513,0.001153665767317619
-0.0004726428571428571,1.143727372299175e-05,0.0004697741749707415
-0.0004723928571428572,1.143727372299175e-05,-0.0008980090097230142
-0.0004721428571428572,-0.001000119784957169,-0.0005560632135495754
-0.0004718928571428571,-0.003360419588544217,0.0008117199711441804
-0.0004716428571428571,-0.002686048216090774,0.001495611563491058
-0.0004713928571428572,-0.001674491157410612,0.0004697741749707415
-0.0004711428571428571,-0.001674491157410612,-0.0002141174173761364
-0.0004708928571428571,-0.001674491157410612,0.0008117199711441804
-0.0004706428571428572,-0.0006629340987304513,0.001153665767317619
-0.0004703928571428572,0.0006858086461764314,-0.0002141174173761364
-0.0004701428571428571,-0.0003257484125037298,0.0001278283787973025
-0.0004698928571428572,-0.001674491157410612,0.0008117199711441804
-0.0004696428571428572,-0.002686048216090774,0.0004697741749707415
