CSVTestFiles/TestCSV_10Hz_8kHz_Fullwaverectification.csv

#Digilent WaveForms Oscilloscope Acquisition
#Device Name: Discovery2
#Serial Number: SN:210321B278C5
#Date Time: 2025-04-28 14:52:30.429
#Sample rate: 8000Hz
#Samples: 8000
#Trigger: Source: Channel 1 Type: Edge Condition: Rising Level: 0 V Hyst.: Auto HoldOff: 0 s
#Channel 1: Range: 500 mV/div Offset: 0 V Sample Mode: Average
#Channel 2: Range: 500 mV/div Offset: 0 V Sample Mode: Average
#Wavegen Channel 1: Running
#Mode: Simple
#Type: Sine
#Frequency: 10 Hz
#Period: 100 ms
#Amplitude: 1 V
#Offset: 0 V
#Symmetry: 50 %
#Phase: 0 °

Time (s),Channel 1 (V),Channel 2 (V)
-0.387375,0.5563555020001026,0.0001278283787973025
-0.38725,0.5580414304312371,0.000127828378797458
-0.3871250000000001,0.5600645445485966,0.0004697741749707415
-0.387,0.5617504729797301,0.0004697741749707415
-0.386875,0.5634364014108644,0.0008117199711440249
-0.38675,0.5647851441557706,0.0004697741749707415
-0.386625,0.565459515528224,0.0004697741749707415
-0.3865,0.5661338869006779,0.0001278283787973025
-0.386375,0.5671454439593576,0.0001278283787973025
-0.38625,0.5684941867042653,0.000127828378797458
-0.3861250000000001,0.5701801151353981,0.0004697741749707415
-0.386,0.5705173008216249,0.0004697741749707415
-0.385875,0.5715288578803055,0.000469774174970586
-0.38575,0.5725404149389852,0.0001278283787973025
-0.385625,0.5735519719976657,0.0004697741749707415
-0.3855,0.5742263433701189,0.000469774174970586
-0.385375,0.5745635290563454,0.0001278283787973025
-0.38525,0.5749007147425725,-0.0002141174173761364
-0.3851250000000001,0.5755750861150256,-0.0002141174173761364
-0.385,0.5765866431737058,0.0001278283787973025
-0.384875,0.5769238288599329,0.0001278283787973025
-0.38475,0.5775982002323859,0.0001278283787973025
-0.384625,0.577935385918613,-0.0002141174173759809
-0.3845,0.5786097572910662,0.000127828378797147
-0.384375,0.5789469429772929,-0.0002141174173761364
-0.38425,0.5792841286635196,0.0001278283787973025
-0.384125,0.5796213143497463,0.0001278283787973025
-0.384,0.579958500035973,0.0001278283787973025
-0.383875,0.5802956857221998,0.000127828378797147
-0.38375,0.5806328714084265,-0.0002141174173761364
-0.383625,0.5806328714084265,0.0001278283787973025
-0.3835,0.5806328714084265,0.0001278283787973025
-0.383375,0.5806328714084265,0.0001278283787973025
-0.38325,0.5809700570946533,0.0001278283787973025
-0.383125,0.5813072427808799,0.0001278283787973025
-0.383,0.5813072427808799,0.0004697741749707415
-0.382875,0.5809700570946532,0.000469774174970586
-0.38275,0.5809700570946532,0.0001278283787973025
-0.382625,0.5806328714084265,0.0004697741749707415
-0.3825,0.5806328714084263,0.000469774174970586
-0.382375,0.5802956857221997,0.0001278283787973025
-0.38225,0.5799585000359727,0.0004697741749707415
-0.382125,0.5792841286635195,0.0004697741749707415
-0.382,0.5789469429772929,0.0004697741749707415
-0.381875,0.5786097572910658,0.0004697741749707415
-0.38175,0.5779353859186127,0.0004697741749707415
-0.381625,0.577261014546159,0.0004697741749707415
-0.3815,0.5765866431737054,0.0004697741749707415
-0.381375,0.5759122718012524,0.0004697741749707415
-0.38125,0.5752379004287985,0.0008117199711441804
-0.381125,0.5742263433701188,0.0008117199711441804
-0.381,0.5732147863114386,0.0008117199711441804
-0.380875,0.5722032292527581,0.0008117199711441804
-0.38075,0.5715288578803051,0.0008117199711441804
-0.380625,0.5701801151353977,0.0008117199711441804
-0.3804999999999999,0.5691685580767175,0.0008117199711441804
-0.380375,0.5681570010180378,0.0008117199711441804
-0.38025,0.5668082582731305,0.0004697741749708969
-0.380125,0.5657967012144508,0.0008117199711441804
-0.38,0.5647851441557706,0.0008117199711441804
-0.379875,0.56377358709709,0.0008117199711441804
-0.37975,0.5627620300384103,0.0008117199711441804
-0.379625,0.5610761016072759,0.0008117199711441804
-0.3794999999999999,0.5593901731761424,0.0008117199711441804
-0.379375,0.5580414304312362,0.0008117199711441804
-0.37925,0.5563555020001019,0.0008117199711441804
-0.379125,0.554669573568969,0.0008117199711441804
-0.379,0.5529836451378354,0.0008117199711441804
-0.378875,0.5512977167067009,0.001153665767317619
-0.37875,0.5492746025893415,0.001153665767317619
-0.378625,0.547588674158207,0.0008117199711441804
-0.3784999999999999,0.5455655600408468,0.0008117199711441804
-0.378375,0.543879631609714,0.0008117199711441804
-0.37825,0.5418565174923528,0.0008117199711443359
-0.378125,0.5398334033749933,0.001153665767317619
-0.378,0.5374731035714062,0.0008117199711441804
-0.377875,0.5357871751402715,0.0008117199711441804
-0.37775,0.5334268753366856,0.0008117199711441804
-0.377625,0.5310665755330974,0.001153665767317464
-0.3774999999999999,0.5287062757295106,0.0008117199711441804
-0.377375,0.5266831616121512,0.0008117199711441804
-0.37725,0.524322861808563,0.0008117199711441804
-0.377125,0.5219625620049771,0.0008117199711441804
-0.377,0.5192650765151633,0.0008117199711441804
-0.376875,0.5169047767115752,0.0008117199711443359
-0.37675,0.5145444769079892,0.001153665767317619
-0.376625,0.512184177104401,0.001153665767317619
-0.3764999999999999,0.5094866916145873,0.001153665767317619
-0.376375,0.5067892061247746,0.001153665767317619
-0.37625,0.5037545349487327,0.0008117199711441804
-0.376125,0.500382678086467,0.0008117199711441804
-0.376,0.4973480069104265,0.0004697741749707415
-0.375875,0.4946505214206112,0.0004697741749707415
-0.37575,0.4912786645583455,0.0004697741749707415
-0.375625,0.4882439933823037,0.000469774174970586
-0.3754999999999999,0.4852093222062629,0.0001278283787973025
-0.375375,0.4815002796577706,0.0001278283787973025
-0.37525,0.4781284227955024,-0.0002141174173761364
-0.375125,0.4757681229919164,-0.0002141174173761364
-0.375,0.4723962661296492,0.0001278283787973025
-0.374875,0.4693615949536073,-0.0002141174173759809
-0.37475,0.4663269237775682,0.0001278283787973025
-0.374625,0.4626178812290727,0.000127828378797147
-0.3744999999999999,0.4592460243668057,-0.0002141174173761364
-0.374375,0.4562113531907666,-0.0002141174173761364
-0.37425,0.4525023106422711,-0.0002141174173762919
-0.374125,0.4491304537800055,-0.0005560632135495754
-0.374,0.4457585969177383,-0.0002141174173761364
-0.373875,0.4423867400554697,-0.0002141174173761364
-0.37375,0.4393520688794306,-0.0002141174173761364
-0.373625,0.4359802120171617,-0.0002141174173761364
-0.3734999999999999,0.4322711694686676,-0.0002141174173762919
-0.373375,0.4282249412339488,-0.0005560632135495754
-0.37325,0.4245158986854532,-0.0005560632135495754
-0.373125,0.4208068561369609,-0.0005560632135495754
-0.373,0.417097813588467,-0.0005560632135495754
-0.372875,0.4140631424124247,-0.0002141174173761364
-0.37275,0.4100169141777059,-0.0002141174173761364
-0.372625,0.4066450573154371,-0.0002141174173759809
-0.3724999999999999,0.4032732004531697,0.000127828378797147
-0.372375,0.3992269722184508,-0.0002141174173761364
-0.37225,0.3955179296699554,-0.0002141174173761364
-0.372125,0.3921460728076897,-0.0002141174173761364
-0.372,0.388099844572969,-0.0002141174173761364
-0.371875,0.3840536163382469,-0.0002141174173761364
-0.37175,0.3806817594759812,-0.0002141174173761364
-0.371625,0.3766355312412587,-0.0002141174173759809
-0.3715000000000001,0.3725893030065399,0.0001278283787973025
-0.371375,0.368880260458046,-0.0002141174173761364
-0.37125,0.3648340322233233,-0.0002141174173759809
-0.371125,0.360450618302378,0.0001278283787973025
-0.371,0.3570787614401107,-0.0002141174173761364
-0.370875,0.3526953475191614,-0.0002141174173761364
-0.37075,0.3483119335982161,-0.0002141174173761364
-0.370625,0.3446028910497203,-0.0002141174173761364
-0.3705000000000001,0.3405566628150015,-0.0002141174173761364
-0.370375,0.3361732488940541,-0.0002141174173761364
-0.37025,0.3324642063455582,0.000127828378797147
-0.370125,0.3280807924246128,-0.0002141174173761364
-0.37,0.3233601928174372,-0.0002141174173759809
-0.369875,0.3199883359551695,0.0001278283787973025
-0.36975,0.3156049220342241,0.0001278283787973025
-0.369625,0.3112215081132751,0.0001278283787973025
-0.3695000000000001,0.3075124655647828,0.0001278283787973025
-0.369375,0.3031290516438355,0.0001278283787973025
-0.36925,0.2987456377228864,0.0004697741749707415
-0.369125,0.2950365951743942,0.0004697741749707415
-0.369,0.2906531812534448,0.0004697741749708969
-0.368875,0.2862697673324976,0.0008117199711440249
-0.36875,0.2822235390977788,0.0004697741749707415
-0.368625,0.2775029394906026,0.0004697741749707415
-0.3685,0.2727823398834306,0.0004697741749707415
-0.368375,0.2690732973349367,0.0004697741749707415
-0.36825,0.2646898834139872,0.0004697741749707415
-0.368125,0.2599692838068153,0.0004697741749707415
-0.368,0.2562602412583191,0.0004697741749708969
-0.367875,0.2515396416511451,0.0008117199711441804
-0.36775,0.2468190420439732,0.0008117199711441804
-0.367625,0.2427728138092505,0.0004697741749708969
-0.3675,0.2383893998883052,0.0008117199711441804
-0.367375,0.2333316145949044,0.0008117199711441804
-0.36725,0.2296225720464081,0.0008117199711440249
-0.367125,0.2245647867530096,0.0004697741749707415
-0.367,0.2198441871458337,0.0008117199711440249
-0.366875,0.2157979589111128,0.0004697741749707415
-0.36675,0.2110773593039408,0.0004697741749707415
-0.366625,0.2066939453829919,0.0008117199711441804
-0.3665,0.2033220885207262,0.0008117199711441804
-0.366375,0.1992758602860056,0.001153665767317619
-0.36625,0.1938808893063758,0.0008117199711441804
-0.366125,0.1888231040129772,0.0008117199711441804
-0.366,0.1834281330333476,0.0004697741749707415
-0.365875,0.1787075334261737,0.0004697741749707415
-0.36575,0.1743241195052283,0.0004697741749707415
-0.365625,0.1696035198980519,0.0004697741749707415
-0.3655,0.1645457346046534,0.0004697741749707415
-0.365375,0.1598251349974793,0.0001278283787973025
-0.36525,0.1547673497040764,0.0001278283787973025
-0.365125,0.1500467500969044,0.0001278283787973025
-0.365,0.1460005218621818,0.0001278283787973025
-0.3648749999999999,0.1416171079412342,0.0001278283787973025
-0.36475,0.1368965083340623,0.0001278283787973025
-0.364625,0.1331874657855662,0.0001278283787973025
-0.3645,0.1284668661783943,0.0001278283787973025
-0.364375,0.1237462665712202,0.0001278283787973025
-0.36425,0.1197000383364977,0.0001278283787973025
-0.364125,0.1156538101017789,0.0001278283787973025
-0.364,0.1112703961808297,0.0001278283787973025
-0.3638749999999999,0.107224167946109,0.0001278283787973025
-0.36375,0.1031779397113902,0.0001278283787973025
-0.363625,0.09879452579044103,0.0001278283787973025
-0.3635,0.09474829755572223,0.0001278283787973025
-0.363375,0.09070206932100158,0.0001278283787973025
-0.36325,0.08665584108627941,0.0001278283787973025
-0.363125,0.08328398422401373,0.0001278283787973025
-0.363,0.07923775598929124,0.0004697741749707415
-0.3628749999999999,0.07519152775457091,0.0004697741749707415
-0.36275,0.07181967089230523,0.0004697741749707415
-0.362625,0.06811062834380963,0.0004697741749707415
-0.3625,0.06440158579531738,0.0004697741749707415
-0.362375,0.06102972893305018,0.0004697741749707415
-0.36225,0.05765787207078128,0.0004697741749708969
-0.362125,0.05394882952228904,0.0008117199711441804
-0.362,0.05091415834624703,0.0004697741749707415
-0.3618749999999999,0.04754230148397967,0.0004697741749707415
-0.36175,0.04383325893548743,0.0004697741749707415
-0.361625,0.04079858775944557,0.0004697741749707415
-0.3615,0.03776391658340646,0.0004697741749707415
-0.361375,0.03472924540736597,0.0008117199711441804
-0.36125,0.03203175991755098,0.0008117199711441804
-0.361125,0.02933427442773845,0.0008117199711441804
-0.361,0.02663678893792361,0.0008117199711441804
-0.3608749999999999,0.02427648913433657,0.0008117199711441804
-0.36075,0.0219161893307506,0.0008117199711441804
-0.360625,0.01921870384093591,0.0008117199711441804
-0.3605,0.01719558972357651,0.0008117199711441804
-0.360375,0.01517247560621618,0.0004697741749707415
-0.36025,0.0131493614888551,0.0008117199711441804
-0.360125,0.01146343305772226,0.0008117199711441804
-0.36,0.01011469031281492,0.0008117199711441804
-0.3598749999999999,0.009103133254134602,0.0008117199711443359
-0.35975,0.007754390509228334,0.001153665767317619
-0.359625,0.006405647764320991,0.001153665767317464
-0.3595,0.00539409070564129,0.0008117199711441804
-0.359375,0.004382533646961129,0.0008117199711441804
-0.35925,0.00337097658828066,0.0008117199711441804
-0.359125,0.002696605215827526,0.0008117199711441804
-0.359,0.002359419529600499,0.0008117199711441804
-0.3588749999999999,0.001685048157147211,0.0008117199711441804
-0.35875,0.001347862470920644,0.0008117199711441804
-0.358625,0.00101067678469377,0.0008117199711440249
-0.3585,0.0006734910984672028,0.0004697741749707415
-0.358375,0.0003363054122404823,0.0008117199711441804
-0.35825,0.0003363054122404823,0.0008117199711441804
-0.358125,0.0003363054122404823,0.0008117199711441804
-0.358,0.0006734910984672028,0.001153665767317464
-0.3578749999999999,0.0006734910984673561,0.0008117199711441804
-0.35775,0.001010676784693923,0.0008117199711441804
-0.357625,0.00134786247092095,0.0008117199711441804
-0.3575,0.002022233843374085,0.0008117199711441804
-0.357375,0.002359419529600805,0.0008117199711441804
-0.35725,0.003033790902054707,0.0008117199711441804
-0.357125,0.004045347960734408,0.0008117199711441804
-0.357,0.005056905019415029,0.0008117199711441804
-0.3568749999999999,0.006068462078095345,0.0008117199711441804
-0.35675,0.007417204823001613,0.0008117199711441804
-0.356625,0.008428761881682541,0.0008117199711441804
-0.3565,0.01011469031281538,0.0008117199711441804
-0.356375,0.01180061874394898,0.0008117199711441804
-0.35625,0.01348654717508366,0.0008117199711440249
-0.356125,0.01584684697866963,0.0004697741749707415
-0.356,0.01786996109603102,0.000469774174970586
-0.3558750000000001,0.02023026089961699,0.0001278283787973025
-0.35575,0.02292774638943076,0.0001278283787973025
-0.355625,0.02562523187924575,0.000469774174970586
-0.3555,0.02832271736905828,0.0001278283787973025
-0.355375,0.03135738854509877,0.0001278283787973025
-0.35525,0.03439205972114064,-0.0002141174173761364
-0.355125,0.03742673089717974,-0.0002141174173761364
-0.355,0.04079858775944863,-0.0002141174173759809
-0.3548750000000001,0.04450763030794087,0.0001278283787973025
-0.35475,0.04754230148398136,0.0001278283787973025
-0.354625,0.05125134403247696,-0.0002141174173761364
-0.3545,0.0549603865809692,-0.0002141174173761364
-0.354375,0.05833224344323825,-0.0002141174173761364
-0.35425,0.06237847167795874,-0.0002141174173761364
-0.354125,0.06608751422645098,-0.0002141174173761364
-0.354,0.06979655677494674,-0.0002141174173761364
-0.3538750000000001,0.07384278500966554,-0.0002141174173761364
-0.35375,0.07721464187193275,-0.0002141174173761364
-0.353625,0.08092368442042884,-0.0002141174173762919
-0.3535,0.08564428402760077,-0.0005560632135495754
-0.353375,0.09002769794854999,-0.0005560632135495754
-0.35325,0.09407392618327094,-0.0005560632135495754
-0.353125,0.09879452579044287,-0.0005560632135495754
-0.353,0.1028407540251652,-0.0005560632135495754
-0.352875,0.1065497965736575,-0.0005560632135495754
-0.35275,0.1109332104946048,-0.0002141174173761364
-0.352625,0.1153166244155539,-0.0002141174173761364
-0.3525,0.1190256669640461,-0.0002141174173761364
-0.352375,0.1237462665712222,-0.0002141174173761364
-0.35225,0.1281296804921694,-0.0002141174173761364
-0.352125,0.1321759087268882,-0.0002141174173761364
-0.352,0.1365593226478376,-0.0002141174173761364
-0.351875,0.140942736568783,-0.0002141174173761364
-0.35175,0.1446517791172769,-0.0002141174173761364
-0.351625,0.1493723787244529,-0.0002141174173761364
-0.3515,0.1537557926453983,-0.0002141174173761364
-0.351375,0.1578020208801211,0.0001278283787973025
-0.35125,0.162522620487295,0.000127828378797147
-0.351125,0.1669060344082404,-0.0002141174173761364
-0.351,0.1712894483291899,-0.0002141174173761364
-0.350875,0.1760100479363619,-0.0002141174173761364
-0.35075,0.180730647543536,-0.0002141174173761364
-0.350625,0.1847768757782587,0.0001278283787973025
-0.3505,0.1894974753854307,0.0001278283787973025
-0.350375,0.1938808893063801,0.0001278283787973025
-0.35025,0.1982643032273276,0.0001278283787973025
-0.350125,0.2029849028344995,0.0001278283787973025
-0.35,0.2077055024416753,0.0001278283787973025
-0.349875,0.2114145449901675,0.0001278283787973025
-0.34975,0.2161351445973416,0.0001278283787973025
-0.349625,0.220518558518291,0.0001278283787973025
-0.3495,0.2249019724392363,0.0001278283787973025
-0.349375,0.2292853863601859,0.0004697741749707415
-0.3492499999999999,0.2340059859673596,0.0004697741749707415
-0.349125,0.2380522142020784,0.0004697741749707415
-0.349,0.2424356281230278,0.0004697741749707415
-0.348875,0.2468190420439732,0.0004697741749707415
-0.34875,0.2508652702786938,0.0004697741749707415
-0.348625,0.2559230555720966,0.0004697741749707415
-0.3485,0.260306469493042,0.0004697741749707415
-0.348375,0.2643526977277646,0.0004697741749707415
-0.3482499999999999,0.2687361116487121,0.0004697741749708969
-0.348125,0.2734567112558841,0.0008117199711441804
-0.348,0.2771657538043802,0.0004697741749708969
-0.347875,0.2818863534115521,0.0008117199711441804
-0.34775,0.2862697673324995,0.0004697741749707415
-0.347625,0.2903159955672221,0.0008117199711440249
-0.3475,0.2946994094881675,0.0004697741749707415
-0.347375,0.2994200090953432,0.0004697741749707415
-0.3472499999999999,0.3031290516438376,0.0004697741749707415
-0.347125,0.3078496512510095,0.0004697741749707415
-0.347,0.3122330651719586,0.0004697741749707415
-0.346875,0.3159421077204508,0.0004697741749707415
-0.34675,0.3203255216413982,0.0008117199711441804
-0.346625,0.324708935562347,0.0008117199711441804
-0.3465,0.3277436067383861,0.0008117199711441804
-0.346375,0.3321270206593356,0.001153665767317464
-0.3462499999999999,0.3368476202665096,0.0008117199711440249
-0.346125,0.3412310341874549,0.0004697741749707415
-0.346,0.3459516337946312,0.0004697741749707415
-0.345875,0.3506722334018031,0.0004697741749707415
-0.34575,0.3540440902640703,0.0004697741749707415
-0.345625,0.3584275041850196,0.0004697741749707415
-0.3455,0.362810918105965,0.0004697741749707415
-0.345375,0.3671943320269144,0.0001278283787973025
-0.3452499999999999,0.3715777459478616,0.0001278283787973025
-0.345125,0.3756239741825804,0.0001278283787973025
-0.345,0.3789958310448494,0.0001278283787973025
-0.344875,0.3830420592795682,0.0001278283787973025
-0.34475,0.3870882875142889,0.0001278283787973025
-0.344625,0.3904601443765579,0.0001278283787973025
-0.3445,0.3945063726112767,0.0001278283787973025
-0.344375,0.398552600845999,0.0001278283787973025
-0.3442499999999999,0.4022616433944929,0.0001278283787973025
-0.344125,0.4056335002567585,0.0001278283787973025
-0.344,0.4096797284914807,0.0001278283787973025
-0.343875,0.4130515853537464,0.0001278283787973025
-0.34375,0.4167606279022403,0.0001278283787973025
-0.343625,0.4204696704507358,0.0001278283787973025
-0.3435,0.4238415273130014,0.0001278283787973025
-0.343375,0.4272133841752703,0.0001278283787973025
-0.3432499999999999,0.4309224267237638,0.0001278283787973025
-0.343125,0.4336199122135763,0.0001278283787973025
-0.343,0.4373289547620719,0.000127828378797458
-0.342875,0.4410379973105641,0.0004697741749707415
-0.34275,0.4440726684866046,0.0001278283787973025
-0.342625,0.4471073396626467,0.0004697741749707415
-0.3425,0.4504791965249124,0.0004697741749707415
-0.342375,0.4535138677009544,0.0004697741749707415
-0.3422499999999999,0.4568857245632216,0.0004697741749708969
-0.342125,0.4602575814254872,0.0008117199711441804
-0.342,0.4629550669153026,0.0004697741749708969
-0.341875,0.4663269237775682,0.0008117199711441804
-0.34175,0.4693615949536087,0.0008117199711441804
-0.341625,0.4720590804434239,0.0008117199711440249
-0.3415,0.4750937516194629,0.0004697741749707415
-0.341375,0.4781284227955047,0.0008117199711441804
-0.3412499999999999,0.4808259082853186,0.0008117199711441804
-0.341125,0.4838605794613577,0.0008117199711441804
-0.341,0.4865580649511727,0.0008117199711441804
-0.340875,0.4892555504409852,0.0008117199711441804
-0.34075,0.491953035930799,0.0008117199711441804
-0.340625,0.4949877071068407,0.0008117199711440249
-0.3405,0.4976851925966532,0.0004697741749707415
-0.340375,0.5003826780864682,0.0004697741749707415
